…
## 1.3
Make a new variable in gapminder for the change in life expectancy from the previous measurement. Filter this table to show all of the entries that have experienced a drop in life expectancy.

Hint: you might find the lag() or diff() functions useful.

```r
gapminder %>% 
  mutate(lifeExp_change = lifeExp-lag(lifeExp))%>% 
  filter(lifeExp_change<0)
```

```
## # A tibble: 221 x 7
##    country    continent  year lifeExp      pop gdpPercap lifeExp_change
##    <fct>      <fct>     <int>   <dbl>    <int>     <dbl>          <dbl>
##  1 Albania    Europe     1992    71.6  3326498     2497.         -0.419
##  2 Algeria    Africa     1952    43.1  9279525     2449.        -33.3  
##  3 Angola     Africa     1952    30.0  4232095     3521.        -42.3  
##  4 Angola     Africa     1987    39.9  7874230     2430.         -0.036
##  5 Australia  Oceania    1952    69.1  8691212    10040.         -6.20 
##  6 Austria    Europe     1952    66.8  6927772     6137.        -14.4  
##  7 Bahrain    Asia       1952    50.9   120447     9867.        -28.9  
##  8 Bangladesh Asia       1952    37.5 46886859      684.        -38.2  
##  9 Benin      Africa     1952    38.2  1738315     1063.        -41.2  
## 10 Benin      Africa     2002    54.4  7026113     1373.         -0.371
## # ... with 211 more rows
```

## 1.4
Filter gapminder so that it shows the max GDP per capita experienced by each country.  

Hint: you might find the max() function useful here.

```r
gapminder %>% 
  select(country, gdpPercap) %>% 
  group_by(country) %>% 
  filter(gdpPercap== max(gdpPercap))
```

```
## # A tibble: 142 x 2
## # Groups:   country [142]
##    country     gdpPercap
##    <fct>           <dbl>
##  1 Afghanistan      978.
##  2 Albania         5937.
##  3 Algeria         6223.
##  4 Angola          5523.
##  5 Argentina      12779.
##  6 Australia      34435.
##  7 Austria        36126.
##  8 Bahrain        29796.
##  9 Bangladesh      1391.
## 10 Belgium        33693.
## # ... with 132 more rows
```
…
