…
Now let’s take a look at the new dataframe.

``` r
green_data_comp
```

    ## # A tibble: 373 x 41
    ##    id    green1 green2 green3 green4 green5 comp1 comp2 comp3 comp4 comp5 comp6
    ##    <chr>  <dbl>  <dbl>  <dbl>  <dbl>  <dbl> <dbl> <dbl> <dbl> <dbl> <dbl> <dbl>
    ##  1 9099       4      4      5      4      3     2     5     4     4     2     4
    ##  2 6275       3      1      3      3      1     4     5     4     5     5     5
    ##  3 8116       4      4      5      4      3     4     5     5     4     5     5
    ##  4 8586       4      3      5      4      3     4     5     5     4     5     5
    ##  5 0406       3      4      4      4      4     4     4     4     4     4     4
    ##  6 5645       4      3      4      4      3     5     5     5     4     4     4
    ##  7 3788       1      5      1      1      1     3     3     3     3     3     3
    ##  8 8424       4      3      2      2      2     1     1     1     2     2     2
    ##  9 8450       4      4      3      5      2     4     4     4     4     4     5
    ## 10 0512       4      4      5      5      4     5     2     5     4     2     4
    ## # ... with 363 more rows, and 29 more variables: comp7 <dbl>, comp8 <dbl>,
    ## #   comp9 <dbl>, comp10 <dbl>, intel1 <dbl>, intel2 <dbl>, intel3 <dbl>,
    ## #   intel4 <dbl>, intel5 <dbl>, intel6 <dbl>, intel7 <dbl>, intel8 <dbl>,
    ## #   intel9 <dbl>, intel10 <dbl>, open1 <dbl>, open2 <dbl>, open3 <dbl>,
    ## #   open4 <dbl>, open5 <dbl>, open6 <dbl>, open7 <dbl>, open8 <dbl>,
    ## #   open9 <dbl>, open10 <dbl>, student <fct>, green_mean <dbl>,
    ## #   comp_mean <dbl>, intel_mean <dbl>, open_mean <dbl>

### 3. Rescale the variables so that they go from 0-100 instead of the original range.

     Name the rescaled variables `*_pomp`.   
     *I wasn't sure if this should be all variables or just the composite variables.*

``` r
green_data_pomp <- select(green_data_comp, c(id, student:open_mean)) %>% 
 rowwise() %>% 
  mutate(across(c(ends_with("mean")), ~((.x - 1) / (5 - 1) * 100), .names = "{.col}_pomp")) %>% 
  ungroup()
green_data_pomp
```

    ## # A tibble: 373 x 10
    ##    id    student     green_mean comp_mean intel_mean open_mean green_mean_pomp
    ##    <chr> <fct>            <dbl>     <dbl>      <dbl>     <dbl>           <dbl>
    ##  1 9099  student            4         3.7        2.8      3.5              75 
    ##  2 6275  student            2.2       4.8        3.5      3.1              30.
    ##  3 8116  student            4         4.4        3.6      3.9              75 
    ##  4 8586  student            3.8       4.6        3        3.9              70 
    ##  5 0406  student            3.8       4          3.7      3.7              70 
    ##  6 5645  student            3.6       4.2        3.8      3.8              65 
    ##  7 3788  student            1.8       3          3        3                20 
    ##  8 8424  student            2.6       1.9        4.3      1.8              40 
    ##  9 8450  not student        3.6       4.2        4        4.33             65 
    ## 10 0512  student            4.4       3.8        3.7      3.8              85.
    ## # ... with 363 more rows, and 3 more variables: comp_mean_pomp <dbl>,
    ## #   intel_mean_pomp <dbl>, open_mean_pomp <dbl>
…
